<?xml version="1.0" encoding="utf-8"?>
<!-- Generator: Adobe Illustrator 21.0.2, SVG Export Plug-In . SVG Version: 6.00 Build 0)  -->
<svg version="1.1" id="Layer_1" xmlns="http://www.w3.org/2000/svg" xmlns:xlink="http://www.w3.org/1999/xlink" x="0px" y="0px"
	 viewBox="0 0 200 200" style="enable-background:new 0 0 200 200;" xml:space="preserve">
<style type="text/css">
	.st0{fill:#FBB400;}
</style>
<path class="st0" d="M180,152.9c0,1.6,0,3.3,0,4.9c-0.3,1.3-0.7,2.5-1.5,3.5c-1.8,2.2-3.9,3.7-7,3.7c-4.9,0-9.8,0.2-14.7,0.2
	c-18.7,0.1-37.4,0.1-56.1,0.2c-11,0-22.1,0-33.1-0.1c-13-0.1-26-0.2-39.1-0.3c-1.2,0-2.3-0.3-3.3-0.9c-3-1.8-4.8-4.3-4.7-8
	c0.1-1.1,0-2.2,0.1-3.3c0.3-4.3,0.6-8.6,0.9-12.9c0.5-6.7,1-13.4,1.5-20.1c0.5-6.7,1.1-13.4,1.6-20.1c0.1-1.4,0.3-2.8,0.4-4.3
	c21,0,41.8,0,62.8,0c0,0.3,0,0.6,0,0.9c0,2.4,0.1,4.8,0.1,7.2c0,3.1,3.6,6.7,6.5,6.7c4,0,8,0.1,12-0.1c2.8-0.1,5.8-2.9,6.1-5.6
	c0.3-2.7,0.2-5.4,0.3-8c0-0.3,0-0.7,0-1c21,0,41.8,0,62.7,0c0.1,0.7,0.2,1.4,0.2,2.1c0.6,7.9,1.2,15.8,1.8,23.7
	c0.7,9.4,1.4,18.8,2.1,28.2C179.8,150.5,179.9,151.7,180,152.9z"/>
<path class="st0" d="M139.1,60.3c3.5,0,6.8,0,10.2,0c5.3,0,10.6,0.1,15.9,0.1c0.2,0,0.4,0,0.6,0c3.7,0.9,7.4,5,7.8,8.8
	c0.3,2.9,0.6,5.8,0.8,8.7c0.3,3.9,0.6,7.9,1,11.8c0,0.1,0,0.3,0,0.4c-20.8,0-41.6,0-62.5,0c0-0.8,0-1.5,0-2.2c0-1.8-0.2-3.7-0.1-5.5
	c0.1-3.3-3.4-7-6.5-7c-4,0-8.1-0.2-12.1,0.1c-3.3,0.2-6,3.3-6.1,6.6c-0.1,2.4-0.1,4.7-0.2,7.1c0,0.3,0,0.6,0,1
	c-20.9,0-41.6,0-62.5,0c0.1-1.3,0.2-2.6,0.3-3.8c0.5-5.5,1-11.1,1.4-16.6c0.3-4.6,4.7-8.8,8.2-9.2c2.1-0.2,4.3-0.3,6.4-0.3
	c6.3-0.1,12.5,0,18.8,0c0.3,0,0.6,0,1.1,0c0-0.3,0-0.7,0-1c0-4.7,0-9.4,0.2-14.2c0.4-9.5,6.8-17.9,15.8-21c2.1-0.7,4.3-1.2,6.6-1.2
	c10.3,0,20.7,0,31,0c1.8,0,3.6,0.1,5.4,0.4c3.2,0.5,6,2,8.6,3.9c4.9,3.5,8,8.3,9.3,14.1c0.3,1.5,0.4,3.2,0.4,4.8
	c0.1,4.4,0.2,8.7,0.2,13.1C139,59.6,139.1,59.9,139.1,60.3z M131.5,60.3c0-0.2,0-0.4,0-0.5c0-3.7,0-7.5,0-11.2
	c0-1.8-0.1-3.6-0.4-5.3c-1.2-6.3-7.4-12.6-14.8-12.6c-10.6,0-21.2,0-31.8,0c-2.5,0-4.8,0.5-6.9,1.8c-4.8,2.9-8,6.9-8.3,12.6
	c-0.3,5-0.2,10-0.2,15c0,0.1,0,0.2,0,0.3C89.8,60.3,110.6,60.3,131.5,60.3z"/>
<path class="st0" d="M92.8,92.8c0-3.4,0-6.7,0-10.1c0-1.1,0.8-2.1,1.9-2.3c0.6-0.1,1.3-0.1,1.9-0.1c2.6,0,5.2,0,7.8,0
	c0.7,0,1.5,0.1,2,0.4c0.8,0.4,1.3,1.1,1.3,2.2c-0.1,6.6,0,13.2,0,19.8c0,1.2-0.9,2.4-2.1,2.4c-3.6,0.1-7.2,0.1-10.8,0
	c-1.2,0-2.1-1.1-2.1-2.3C92.8,99.5,92.8,96.2,92.8,92.8z"/>
</svg>
